{
  "development": {
    "server": {
      "ipAddress": "0.0.0.0",
      "port": 30000,
      "publicFolder": "dist/public",
      "singlePage": "/cp/index.html",
      "viewsFolder": "dist/views"
    },
    "email": {
      "name": "<Sender Name>",
      "host": "<smtp.yandex.ru>",
      "port": 465,
      "authUser": "<Email Adress>",
      "authPass": "<Password>",
      "secure": true
    },
    "accessLogs": "/dist/access.log",
    "lowDB": "/dist/db.json",
    "files": {
      "uploadPath": "/dist/public/uploads",
      "supportedExt": [
        {
          "ext": ".jpg",
          "size": "512KB"
        },
        {
          "ext": ".jpeg",
          "size": "512KB"
        },
        {
          "ext": ".png",
          "size": "1MB"
        },
        {
          "ext": ".mp4",
          "size": "25MB"
        }
      ]
    }
  },
  "production": {
    "server": {
      "ipAddress": "0.0.0.0",
      "port": 30000,
      "publicFolder": "public",
      "singlePage": "/cp/index.html",
      "viewsFolder": "views"
    },
    "email": {
      "name": "<Sender Name>",
      "host": "<smtp.yandex.ru>",
      "port": 465,
      "authUser": "<Email Adress>",
      "authPass": "<Password>",
      "secure": true
    },
    "accessLogs": "/access.log",
    "lowDB": "/db.json",
    "files": {
      "uploadPath": "/public/uploads",
      "supportedExt": [
        {
          "ext": ".jpg",
          "size": "512KB"
        },
        {
          "ext": ".jpeg",
          "size": "512KB"
        },
        {
          "ext": ".png",
          "size": "1MB"
        },
        {
          "ext": ".mp4",
          "size": "25MB"
        }
      ]
    }
  }
}
